Lab2/simulation/qsim/lab2.msim.vcd
$comment
	File created using the following command:
		vcd file lab2.msim.vcd -direction
$end
$date
	Tue Oct 01 16:05:43 2024
$end
$version
	ModelSim Version 10.1d
$end
$timescale
	1ps
$end
$scope module lab2_vlg_vec_tst $end
$var reg 1 ! x1 $end
$var reg 1 " x2 $end
$var reg 1 # x3 $end
$var reg 1 $ x4 $end
$var wire 1 % f $end
$var wire 1 & sampler $end
$scope module i1 $end
$var wire 1 ' gnd $end
$var wire 1 ( vcc $end
$var wire 1 ) unknown $end
$var tri1 1 * devclrn $end
$var tri1 1 + devpor $end
$var tri1 1 , devoe $end
$var wire 1 - f~output_o $end
$var wire 1 . x3~input_o $end
$var wire 1 / x4~input_o $end
$var wire 1 0 x2~input_o $end
$var wire 1 1 x1~input_o $end
$var wire 1 2 f~0_combout $end
$upscope $end
$upscope $end
$enddefinitions $end
#0
$dumpvars
0!
0"
0#
0$
1%
x&
0'
1(
x)
1*
1+
1,
1-
0.
0/
00
01
12
$end
#5000000
1$
1/
0&
02
0-
0%
#10000000
1#
0$
1.
0/
1&
#15000000
1$
1/
0&
#20000000
1"
0#
0$
10
0.
0/
1&
12
1-
1%
#25000000
1$
1/
0&
02
0-
0%
#30000000
1#
0$
1.
0/
1&
12
1-
1%
#35000000
1$
1/
0&
02
0-
0%
#40000000
1!
0"
0#
0$
11
00
0.
0/
1&
#45000000
1$
1/
0&
12
1-
1%
#50000000
1#
0$
1.
0/
1&
02
0-
0%
#55000000
1$
1/
0&
12
1-
1%
#60000000
1"
0#
0$
10
0.
0/
1&
#65000000
1$
1/
0&
#70000000
1#
0$
1.
0/
1&
02
0-
0%
#75000000
1$
1/
0&
